\relax 
\providecommand\hyper@newdestlabel[2]{}
\providecommand\HyperFirstAtBeginDocument{\AtBeginDocument}
\HyperFirstAtBeginDocument{\ifx\hyper@anchor\@undefined
\global\let\oldcontentsline\contentsline
\gdef\contentsline#1#2#3#4{\oldcontentsline{#1}{#2}{#3}}
\global\let\oldnewlabel\newlabel
\gdef\newlabel#1#2{\newlabelxx{#1}#2}
\gdef\newlabelxx#1#2#3#4#5#6{\oldnewlabel{#1}{{#2}{#3}}}
\AtEndDocument{\ifx\hyper@anchor\@undefined
\let\contentsline\oldcontentsline
\let\newlabel\oldnewlabel
\fi}
\fi}
\global\let\hyper@last\relax 
\gdef\HyperFirstAtBeginDocument#1{#1}
\providecommand\HyField@AuxAddToFields[1]{}
\providecommand\HyField@AuxAddToCoFields[2]{}
\@writefile{toc}{\contentsline {section}{\numberline {1}Runtime dependence on matrix size}{1}{section.1}}
\@writefile{toc}{\contentsline {section}{\numberline {2}Speedup of parallel execution over serial execution}{1}{section.2}}
\@writefile{lof}{\contentsline {figure}{\numberline {1}{\ignorespaces Dependence of the runtime on matrix size for 16 parallel threads of execution\relax }}{2}{figure.caption.1}}
\providecommand*\caption@xref[2]{\@setref\relax\@undefined{#1}}
\newlabel{fig1}{{1}{2}{Dependence of the runtime on matrix size for 16 parallel threads of execution\relax }{figure.caption.1}{}}
\@writefile{lof}{\contentsline {figure}{\numberline {2}{\ignorespaces Dependence of the runtime on matrix sizes $\le 1024$ for 16 parallel threads\relax }}{2}{figure.caption.2}}
\newlabel{fig1_zoomin}{{2}{2}{Dependence of the runtime on matrix sizes $\le 1024$ for 16 parallel threads\relax }{figure.caption.2}{}}
\@writefile{lof}{\contentsline {figure}{\numberline {3}{\ignorespaces Speedup of parallel over serial matrix multiply\relax }}{3}{figure.caption.3}}
\newlabel{fig2}{{3}{3}{Speedup of parallel over serial matrix multiply\relax }{figure.caption.3}{}}
